{
    "created_at": {
        "type": "number"
    },
    "created_by": {
        "type": "string"
    },
    "updated_at": {
        "type": "number"
    },
    "updated_by": {
        "type": "string"
    },
    "deleted": {
        "type": "boolean",
        "default": false
    },
    "deleted_by": {
        "type": "string"
    },
    "deleted_at": {
        "type": "number"
    },
    "id": {
        "type": "string",
        "primary": true
    },
    "user_id": {
        "type": "string",
        "required": true
    },
    "category_id": {
        "type": "string"
    },
    "title": {
        "type": "string"
    },
    "description": {
        "type": "string"
    },
    "content": {
        "type": "string"
    },
    "image": {
        "type": "json"
    },
    "status": {
        "type": "number",
        "default": 0
    },
    "approvedtime": {
        "type": "number"
    },
    "approvedby": {
        "type": "string"
    },
    "priority": {
        "type": "number"
    },
    "tags_age": {
        "type": "json"
    },
    "type_show": {
        "type": "json"
    },
    "show": {
        "type": "number",
        "default": 1
    },
    "category": {
        "type": "dict"
    }
}