{
    "created_at": {
        "type": "number"
    },
    "created_by": {
        "type": "string"
    },
    "updated_at": {
        "type": "number"
    },
    "updated_by": {
        "type": "string"
    },
    "deleted": {
        "type": "boolean",
        "default": false
    },
    "deleted_by": {
        "type": "string"
    },
    "deleted_at": {
        "type": "number"
    },
    "id": {
        "type": "string",
        "primary": true
    },
    "ma": {
        "type": "string",
        "length": 255
    },
    "ten": {
        "type": "string",
        "length": 255
    },
    "tenkhongdau": {
        "type": "string"
    },
    "ten_tieng_anh": {
        "type": "string"
    },
    "loai": {
        "type": "number"
    },
    "active": {
        "type": "number",
        "default": 1
    }
}