[
    { "value": "0", "text": "Không xác định" },
    { "value": "1", "text": "Tai nạn giao thông" },
    { "value": "2", "text": "Tai nạn lao động" },
    { "value": "3", "text": "Tai nạn dưới nước" },
    { "value": "4", "text": "Bỏng" },
    { "value": "5", "text": "Bạo lực, xung đột" },
    { "value": "6", "text": "Tự tử" },
    { "value": "7", "text": "Ngộ độc các loại" },
    { "value": "8", "text": "Khác" }
]