[
    { "value": "dich_truyen", "text": "Dịch truyền" },
    { "value": "hoa_chat", "text": "Hóa chất" },
    { "value": "thuoc_thuong", "text": "Thuốc thường" },
    { "value": "thuoc_y_hoc_co_truyen", "text": "Thuốc y học cổ truyền" },
    { "value": "thuoc_dich_truyen", "text": "Thuốc dịch truyền" },
    { "value": "thuoc_gay_nghien", "text": "Thuốc gây nghiện" },
    { "value": "thuoc_huong_than", "text": "Thuốc hướng thần" },
    { "value": "vat_tu", "text": "Vật tư" },
    { "value": "vat_tu_hoa_chat", "text": "Vật tư hóa chất" },
    { "value": "vat_tu_thay_the", "text": "Vật tư thay thế" },
    { "value": "vat_tu_tieu_hao", "text": "Vật tư tiêu hao" }
]